{"idField":"first","totalRecords":1000,"totalPages":100,"showing":10,"page":1,"from":1,"to":10,"success":true,"message":"Displaying records 0 to 10 out of 1000","data":[{"first":"1","second":"2","third":"3","fourth":"4"},{"first":"2","second":"21","third":"31","fourth":"41"},{"first":"3","second":"22","third":"32","fourth":"42"},{"first":"4","second":"23","third":"33","fourth":"43"},{"first":"5","second":"24","third":"34","fourth":"44"},{"first":"6","second":"25","third":"35","fourth":"45"},{"first":"7","second":"26","third":"36","fourth":"46"},{"first":"8","second":"27","third":"37","fourth":"47"},{"first":"9","second":"28","third":"38","fourth":"48"},{"first":"10","second":"29","third":"39","fourth":"49"}]}